Division,WeightClassKg,Place,Name,Team,BodyweightKg,Best3SquatKg,Best3BenchKg,Best3DeadliftKg,TotalKg,Equipment,Event,Sex
Boys,51.71,1,Andrew Paredez,Big Spring,51.35,163.29,95.25,176.9,435.45,Single-ply,SBD,M
Boys,51.71,2,Chris Ortiz,Pecos,51.35,138.35,83.91,158.76,381.02,Single-ply,SBD,M
Boys,51.71,3,Nathan Mendiaz,Monahans,48.81,142.88,88.45,138.35,369.68,Single-ply,SBD,M
Boys,51.71,4,Diego Martinez,Lamesa,50.35,115.67,61.23,120.2,297.1,Single-ply,SBD,M
Boys,51.71,5,Joseph Jenkins,Perryton,51.62,106.59,65.77,120.2,292.57,Single-ply,SBD,M
Boys,51.71,6,Bryson Ovalle,Big Spring,50.71,95.25,61.23,127.01,283.5,Single-ply,SBD,M
Boys,51.71,7,Andrew Luna,Perryton,48.44,104.33,45.36,104.33,254.01,Single-ply,SBD,M
Boys,51.71,8,Kelton Johnson #1,Levelland,27.58,43.09,24.95,61.23,129.27,Single-ply,SBD,M
Boys,51.71,DQ,Zachary Alvarez,Fort Stockton,50.08,127.01,,,,Single-ply,SBD,M
Boys,,NS,Adrian Leyva,Fort Stockton,,,,,,Single-ply,SBD,M
Boys,55.79,1,Ty Diaz,Andrews,54.7,151.95,83.91,181.44,417.3,Single-ply,SBD,M
Boys,55.79,2,Noel Ybarra,Pecos,55.16,151.95,90.72,154.22,396.89,Single-ply,SBD,M
Boys,55.79,3,Kordell Lawrence,Dalhart,54.98,165.56,79.38,142.88,387.82,Single-ply,SBD,M
Boys,55.79,4,Seth Barton,Midland Greenwood,54.52,140.61,83.91,147.42,371.95,Single-ply,SBD,M
Boys,55.79,5,Kris Hernandez,Lamesa,55.43,113.4,70.31,149.69,333.39,Single-ply,SBD,M
Boys,55.79,6,Michael DeLeon,Andrews,53.52,124.74,61.23,136.08,322.05,Single-ply,SBD,M
Boys,55.79,7,Matthew Cano,Perryton,55.79,113.4,72.57,136.08,322.05,Single-ply,SBD,M
Boys,55.79,8,Izac Anthony,Levelland,54.98,122.47,61.23,136.08,319.78,Single-ply,SBD,M
Boys,55.79,9,Aaron Blackshear,Big Spring,55.16,115.67,61.23,131.54,308.44,Single-ply,SBD,M
Boys,55.79,10,Trevor Bennett,Perryton,55.16,113.4,61.23,124.74,299.37,Single-ply,SBD,M
Boys,55.79,11,Aaron Caroll,Big Spring,52.25,99.79,54.43,113.4,267.62,Single-ply,SBD,M
Boys,55.79,DQ,Jaime Luz,Levelland,52.34,92.99,,,,Single-ply,SBD,M
Boys,59.87,1,Dominic Longoria,Levelland,58.51,185.97,102.06,181.44,469.47,Single-ply,SBD,M
Boys,59.87,2,Justin Ormsby,Big Spring,59.42,156.49,90.72,199.58,446.79,Single-ply,SBD,M
Boys,59.87,3,Daniel Hernandez,Pecos,58.97,172.37,97.52,174.63,444.52,Single-ply,SBD,M
Boys,59.87,4,Luke Krueger,Snyder,58.06,167.83,79.38,165.56,412.77,Single-ply,SBD,M
Boys,59.87,5,Nicholas Acosta,Seminole,59.42,138.35,99.79,158.76,396.89,Single-ply,SBD,M
Boys,59.87,6,Ivan Rodriguez,Andrews,57.52,149.69,70.31,165.56,385.55,Single-ply,SBD,M
Boys,59.87,7,Kody Collins,Monahans,58.97,131.54,77.11,133.81,342.46,Single-ply,SBD,M
Boys,59.87,8,Caio Zacharias,Dalhart,59.87,138.35,72.57,131.54,342.46,Single-ply,SBD,M
Boys,59.87,DQ,Zachary Salazar,Lamesa,59.33,,,,,Single-ply,SBD,M
Boys,59.87,DQ,Nicholas Gonzales,Andrews,58.51,145.15,,,,Single-ply,SBD,M
Boys,59.87,DQ,Xzavier Estrada,Andrews,59.51,,,,,Single-ply,SBD,M
Boys,59.87,DQ,Daniel Sánchez,Midland Greenwood,57.7,154.22,92.99,,,Single-ply,SBD,M
Boys,,NS,Ali Mata,Snyder,,,,,,Single-ply,SBD,M
Boys,67.13,1,Christian Arzabala,Andrews,64.68,204.12,124.74,229.06,557.92,Single-ply,SBD,M
Boys,67.13,2,Jon Naylor,Midland Greenwood,65.86,213.19,124.74,181.44,519.36,Single-ply,SBD,M
Boys,67.13,3,Britin Garcia,Andrews,66.5,188.24,104.33,183.7,476.27,Single-ply,SBD,M
Boys,67.13,4,Raul Vasquez,Andrews,66.41,185.97,104.33,183.7,474,Single-ply,SBD,M
Boys,67.13,5,Isiah Petralba,Fort Stockton,63.68,172.37,115.67,172.37,460.4,Single-ply,SBD,M
Boys,67.13,6,Oscar Solís,Pecos,67.04,165.56,115.67,174.63,455.86,Single-ply,SBD,M
Boys,67.13,7,Michael Lopez,Levelland,63.23,165.56,97.52,190.51,453.59,Single-ply,SBD,M
Boys,67.13,8,Emilio Miranda,Levelland,67.04,183.7,81.65,176.9,442.25,Single-ply,SBD,M
Boys,67.13,9,Kaiden Summerville,Perryton,64.95,165.56,99.79,174.63,439.98,Single-ply,SBD,M
Boys,67.13,10,Ryan Orona,Pecos,65.23,136.08,97.52,172.37,405.97,Single-ply,SBD,M
Boys,67.13,DQ,John Leija,Vernon,67.13,167.83,108.86,,,Single-ply,SBD,M
Boys,67.13,DQ,Leroy Sanchez,Andrews,66.13,213.19,,,,Single-ply,SBD,M
Boys,74.84,1,Garron Weber,Borger,73.3,183.7,122.47,226.8,532.97,Single-ply,SBD,M
Boys,74.84,2,Noah Martinez #1,Dalhart,73.3,213.19,115.67,197.31,526.17,Single-ply,SBD,M
Boys,74.84,3,Jesus Garcia #5,Andrews,73.21,190.51,124.74,201.85,517.1,Single-ply,SBD,M
Boys,74.84,4,Jesse Cobos,Andrews,72.67,197.31,102.06,201.85,501.22,Single-ply,SBD,M
Boys,74.84,5,Corbin McGill,Borger,73.39,183.7,115.67,192.78,492.15,Single-ply,SBD,M
Boys,74.84,6,Jacob Rodriguez #2,Fort Stockton,73.48,188.24,104.33,181.44,474,Single-ply,SBD,M
Boys,74.84,7,CJ McDaniel,Borger,69.58,176.9,102.06,183.7,462.66,Single-ply,SBD,M
Boys,74.84,8,Steven Everrett,Fort Stockton,71.94,181.44,90.72,181.44,453.59,Single-ply,SBD,M
Boys,74.84,9,Coty Beard,Monahans,74.84,163.29,97.52,190.51,451.32,Single-ply,SBD,M
Boys,74.84,10,Gabriel Salazar,Sweetwater,74.21,163.29,95.25,190.51,449.06,Single-ply,SBD,M
Boys,74.84,11,Adrian Alvidrez,Seminole,73.66,172.37,99.79,167.83,439.98,Single-ply,SBD,M
Boys,74.84,12,Brian Ramos,Midland Greenwood,74.57,163.29,104.33,154.22,421.84,Single-ply,SBD,M
Boys,82.1,1,Jose Cornejo,Andrews,82.1,265.35,170.1,263.08,698.53,Single-ply,SBD,M
Boys,82.1,2,Jose Juarez #4,Snyder,81.65,217.72,136.08,235.87,589.67,Single-ply,SBD,M
Boys,82.1,3,Enrique Barron,Snyder,81.1,222.26,127.01,226.8,576.06,Single-ply,SBD,M
Boys,82.1,4,Jesse Flores,Levelland,79.29,188.24,142.88,190.51,521.63,Single-ply,SBD,M
Boys,82.1,5,Brandon Propst,Fort Stockton,79.92,190.51,113.4,185.97,489.88,Single-ply,SBD,M
Boys,82.1,6,DJ Petties,Dalhart,78.93,174.63,88.45,217.72,480.81,Single-ply,SBD,M
Boys,82.1,7,Jimetre Post,Big Spring,80.29,174.63,95.25,204.12,474,Single-ply,SBD,M
Boys,82.1,8,Armando Ramos,Levelland,82.01,174.63,108.86,181.44,464.93,Single-ply,SBD,M
Boys,82.1,9,Michael Marquez,Levelland,79.47,188.24,104.33,170.1,462.66,Single-ply,SBD,M
Boys,82.1,DQ,Carlos Hinojosa,Lamesa,80.74,,,,,Single-ply,SBD,M
Boys,82.1,DQ,Jaidan Puga,Dalhart,78.83,242.67,145.15,,,Single-ply,SBD,M
Boys,82.1,DQ,Henry Torres,Perryton,77.47,183.7,,,,Single-ply,SBD,M
Boys,,NS,Marcos Rodriguez,Fort Stockton,,,,,,Single-ply,SBD,M
Boys,89.81,1,Miguel Rangel,Borger,86.09,260.82,158.76,238.14,657.71,Single-ply,SBD,M
Boys,89.81,2,Roy Flores,Levelland,84.64,226.8,151.95,240.4,619.15,Single-ply,SBD,M
Boys,89.81,3,Duston Vargas,Andrews,89.09,240.4,140.61,213.19,594.21,Single-ply,SBD,M
Boys,89.81,4,Dalton Richardson,Midland Greenwood,85.37,208.65,104.33,217.72,530.7,Single-ply,SBD,M
Boys,89.81,5,Junior Lawhon,Sweetwater,88.54,197.31,131.54,190.51,519.36,Single-ply,SBD,M
Boys,89.81,6,Juan Salazar,Vernon,82.83,192.78,113.4,199.58,505.76,Single-ply,SBD,M
Boys,89.81,7,Christian Perez,Levelland,87.09,192.78,104.33,204.12,501.22,Single-ply,SBD,M
Boys,89.81,8,Ivan Delgado,Big Spring,87.72,195.04,113.4,172.37,480.81,Single-ply,SBD,M
Boys,89.81,9,Braden Latham,Midland Greenwood,86.09,181.44,122.47,172.37,476.27,Single-ply,SBD,M
Boys,89.81,10,Matt Ligon,Monahans,84.64,181.44,99.79,179.17,460.4,Single-ply,SBD,M
Boys,89.81,DQ,Caleb Thomas,Snyder,85.64,210.92,120.2,,,Single-ply,SBD,M
Boys,89.81,DQ,Wesley Ward,Borger,86.73,185.97,106.59,,,Single-ply,SBD,M
Boys,99.79,1,Esteban López,Andrews,99.43,278.96,158.76,272.16,709.87,Single-ply,SBD,M
Boys,99.79,2,Felix Rodriguez,Midland Greenwood,99.52,272.16,156.49,240.4,669.05,Single-ply,SBD,M
Boys,99.79,3,Paul Mata,Snyder,99.7,240.4,163.29,217.72,621.42,Single-ply,SBD,M
Boys,99.79,4,Ezequiel Porras,Borger,99.06,226.8,124.74,199.58,551.11,Single-ply,SBD,M
Boys,99.79,5,Bradley Coward,Borger,98.16,204.12,149.69,195.04,548.85,Single-ply,SBD,M
Boys,99.79,6,Josh Caldwell,Monahans,97.52,215.46,95.25,226.8,537.51,Single-ply,SBD,M
Boys,99.79,7,Jessie Villarreal,Lamesa,98.34,197.31,131.54,204.12,532.97,Single-ply,SBD,M
Boys,99.79,8,Braden Price,Levelland,93.53,188.24,104.33,226.8,519.36,Single-ply,SBD,M
Boys,99.79,9,Raymond Delgado,Sweetwater,99.06,199.58,127.01,188.24,514.83,Single-ply,SBD,M
Boys,99.79,10,Channing Miller,Big Spring,95.98,179.17,102.06,195.04,476.27,Single-ply,SBD,M
Boys,99.79,DQ,Alex Ayala,Lamesa,98.43,263.08,204.12,,,Single-ply,SBD,M
Boys,99.79,DQ,Paul Ochoa,Levelland,95.98,,,,,Single-ply,SBD,M
Boys,109.77,1,Tyler Brewer,Dalhart,103.06,294.84,147.42,269.89,712.14,Single-ply,SBD,M
Boys,109.77,2,Ben Madrid,Pecos,109.41,238.14,185.97,233.6,657.71,Single-ply,SBD,M
Boys,109.77,3,Justin Rayos,Pecos,108.59,249.48,172.37,222.26,644.1,Single-ply,SBD,M
Boys,109.77,4,Jesus Benitez,Lamesa,103.15,260.82,138.35,226.8,625.96,Single-ply,SBD,M
Boys,109.77,5,Levi Molina,Big Spring,106.59,238.14,145.15,229.06,612.35,Single-ply,SBD,M
Boys,109.77,6,Dylan Jimenez,Sweetwater,105.41,222.26,142.88,226.8,591.94,Single-ply,SBD,M
Boys,109.77,7,Ivan Pena,Fort Stockton,108.59,233.6,120.2,226.8,580.6,Single-ply,SBD,M
Boys,109.77,8,Andrew Vasquez,Perryton,100.06,231.33,136.08,201.85,569.26,Single-ply,SBD,M
Boys,109.77,9,Preston Newman,Vernon,105.69,204.12,127.01,204.12,535.24,Single-ply,SBD,M
Boys,109.77,10,Julian Gervasio,Pecos,108.86,215.46,117.93,195.04,528.44,Single-ply,SBD,M
Boys,109.77,11,Mario Becerril,Perryton,100.7,201.85,104.33,172.37,478.54,Single-ply,SBD,M
Boys,109.77,DQ,Isreal Vera,Sweetwater,107.14,,,,,Single-ply,SBD,M
Boys,124.74,1,Oscar Gutierrez,Monahans,123.1,299.37,176.9,240.4,716.68,Single-ply,SBD,M
Boys,124.74,2,Jesus Rodriguez,Midland Greenwood,122.47,299.37,163.29,242.67,705.34,Single-ply,SBD,M
Boys,124.74,3,Chris LeBeouf,Pecos,118.93,263.08,176.9,233.6,673.58,Single-ply,SBD,M
Boys,124.74,4,Tomas Vidales,Levelland,118.57,251.74,151.95,231.33,635.03,Single-ply,SBD,M
Boys,124.74,5,Johnny Maldonado,Pecos,116.12,240.4,129.27,240.4,610.08,Single-ply,SBD,M
Boys,124.74,6,Sebastian Enriquez,Fort Stockton,117.39,231.33,117.93,204.12,553.38,Single-ply,SBD,M
Boys,124.74,7,Jordan Dunn #2,Big Spring,115.03,217.72,122.47,197.31,537.51,Single-ply,SBD,M
Boys,124.74,8,Damian Provencio,Borger,119.2,213.19,120.2,204.12,537.51,Single-ply,SBD,M
Boys,124.74,9,Jarod Rose,Midland Greenwood,113.76,204.12,117.93,195.04,517.1,Single-ply,SBD,M
Boys,124.74,10,Ricky Rosales,Pecos,118.39,197.31,117.93,181.44,496.68,Single-ply,SBD,M
Boys,,NS,Ramon Flores,Monahans,,,,,,Single-ply,SBD,M
Boys,124.74,DQ,Nathan Schneider,Big Spring,113.94,,,,,Single-ply,SBD,M
Boys,124.74+,1,Luis Valenzuela,Andrews,125.46,267.62,167.83,249.48,684.92,Single-ply,SBD,M
Boys,124.74+,2,Zane Sorrells,Snyder,124.83,281.23,145.15,240.4,666.78,Single-ply,SBD,M
Boys,124.74+,3,Sean Humphrey,Snyder,128.28,272.16,172.37,222.26,666.78,Single-ply,SBD,M
Boys,124.74+,4,Derek Gusman,Big Spring,160.39,249.48,145.15,258.55,653.17,Single-ply,SBD,M
Boys,124.74+,5,Malcolm Montez,Monahans,146.69,251.74,163.29,219.99,635.03,Single-ply,SBD,M
Boys,124.74+,6,Nelson McGrew,Pecos,127.19,260.82,136.08,222.26,619.15,Single-ply,SBD,M
Boys,124.74+,7,Seth Jaramillo,Andrews,125.19,254.01,138.35,224.53,616.89,Single-ply,SBD,M
Boys,124.74+,8,Casey Stewart,Dalhart,125.55,263.08,145.15,185.97,594.21,Single-ply,SBD,M
Boys,124.74+,9,Chris Samaniego,Monahans,153.68,244.94,131.54,199.58,576.06,Single-ply,SBD,M
Boys,124.74+,10,Val Presas,Big Spring,139.62,244.94,122.47,199.58,566.99,Single-ply,SBD,M
Boys,124.74+,11,Johnny Fehr,Seminole,126.82,226.8,131.54,201.85,560.19,Single-ply,SBD,M
Boys,124.74+,12,Jeremiah Berrera,Sweetwater,125.19,195.04,90.72,204.12,489.88,Single-ply,SBD,M
