Division,WeightClassKg,Place,Name,Team,BodyweightKg,Best3SquatKg,Best3BenchKg,Best3DeadliftKg,TotalKg,Equipment,Event,Sex
Boys,51.71,1,Xavier Estrada,Andrews,51.71,106.59,61.23,111.13,278.96,Single-ply,SBD,M
Boys,51.71,2,Josue Ortiz,Pecos,49.08,90.72,54.43,129.27,274.42,Single-ply,SBD,M
Boys,51.71,3,Chris Ortiz,Pecos,45.99,92.99,65.77,106.59,265.35,Single-ply,SBD,M
Boys,51.71,4,Zach Alvarez,Fort Stockton,45.45,95.25,52.16,102.06,249.48,Single-ply,SBD,M
Boys,55.79,1,Daniel Hernandez,Pecos,55.7,136.08,68.04,140.61,344.73,Single-ply,SBD,M
Boys,59.87,2,Kody Collins,Monahans,56.02,129.27,65.77,120.2,315.25,Single-ply,SBD,M
Boys,55.79,3,Noel Ybarra,Pecos,54.61,102.06,70.31,124.74,297.1,Single-ply,SBD,M
Boys,55.79,4,Garrett Tarpley,Crane,55.79,108.86,65.77,117.93,292.57,Single-ply,SBD,M
Boys,55.79,5,Jacob Zepeda,Sterling City,55.07,106.59,61.23,113.4,281.23,Single-ply,SBD,M
Boys,59.87,1,Daniel Valenzuela,Pecos,58.97,167.83,86.18,179.17,433.18,Single-ply,SBD,M
Boys,59.87,2,Oscar Salgado,Alpine,56.61,138.35,97.52,165.56,401.43,Single-ply,SBD,M
Boys,59.87,3,Dillon Hughes,Sterling City,59.33,149.69,92.99,158.76,401.43,Single-ply,SBD,M
Boys,59.87,4,Isiah Petralba,Fort Stockton,59.24,154.22,95.25,136.08,385.55,Single-ply,SBD,M
Boys,59.87,5,Gian Cruz,Monahans,59.6,131.54,79.38,163.29,374.21,Single-ply,SBD,M
Boys,59.87,6,Alex Rivas,Alpine,59.87,117.93,70.31,113.4,301.64,Single-ply,SBD,M
Boys,59.87,7,Jake Everett,Sterling City,58.97,108.86,61.23,122.47,292.57,Single-ply,SBD,M
Boys,59.87,DQ,Jarred Everett,Sterling City,59.06,115.67,,,,Single-ply,SBD,M
Boys,74.84,1,Alex Valdez,Andrews,67.22,163.29,102.06,199.58,464.93,Single-ply,SBD,M
Boys,74.84,2,Juan Gonzalez,Fort Stockton,67.31,172.37,95.25,176.9,444.52,Single-ply,SBD,M
Boys,74.84,3,Derrick Garcia,Pecos,67.36,163.29,104.33,170.1,437.72,Single-ply,SBD,M
Boys,67.13,4,Hayden Dunaway,Andrews,66.77,140.61,86.18,161.03,387.82,Single-ply,SBD,M
Boys,67.13,5,Jacob Vargas,Crane,64.86,138.35,81.65,163.29,383.29,Single-ply,SBD,M
Boys,67.13,6,Raul Vasquez,Andrews,64.86,136.08,81.65,154.22,371.95,Single-ply,SBD,M
Boys,67.13,7,Garett Stille,Andrews,66.95,142.88,79.38,149.69,371.95,Single-ply,SBD,M
Boys,67.13,8,Kandon McKinney,Andrews,64.32,113.4,70.31,151.95,335.66,Single-ply,SBD,M
Boys,67.13,9,Kade Warren,Sterling City,66.22,131.54,61.23,142.88,335.66,Single-ply,SBD,M
Boys,67.13,10,Oscar Solís,Pecos,65.23,117.93,63.5,136.08,317.51,Single-ply,SBD,M
Boys,67.13,11,Martin Nino,Sterling City,60.6,106.59,68.04,111.13,285.76,Single-ply,SBD,M
Boys,67.13,12,Freddy Nino,Sterling City,63.87,120.2,68.04,92.99,281.23,Single-ply,SBD,M
Boys,67.13,DQ,Armando Garcia,Fort Stockton,65.05,142.88,,,,Single-ply,SBD,M
Boys,67.13,DQ,Mitchell McGuire,Sterling City,66.86,,90.72,136.08,,Single-ply,SBD,M
Boys,74.84,1,Aaron Castillo,Rankin,73.03,206.38,147.42,233.6,587.4,Single-ply,SBD,M
Boys,74.84,2,Cole Hunt,Alpine,73.75,190.51,113.4,208.65,512.56,Single-ply,SBD,M
Boys,82.1,3,Richard Valenzuela,Andrews,74.93,174.63,124.74,201.85,501.22,Single-ply,SBD,M
Boys,74.84,4,Cody Ortiz,Big Lake Reagan County,69.67,199.58,102.06,181.44,483.08,Single-ply,SBD,M
Boys,82.1,5,Ignacio Rodriguez,Pecos,74.98,165.56,111.13,188.24,464.93,Single-ply,SBD,M
Boys,82.1,DQ,Joe Macias,Andrews,75.02,176.9,124.74,,,Single-ply,SBD,M
Boys,74.84,DQ,Logan Kilpatrick,Sterling City,74.3,174.63,92.99,,,Single-ply,SBD,M
Boys,82.1,1,Jose Cornejo,Andrews,77.66,190.51,108.86,208.65,508.02,Single-ply,SBD,M
Boys,82.1,2,Oscar Sanchez,Fort Stockton,79.11,204.12,124.74,174.63,503.49,Single-ply,SBD,M
Boys,89.81,3,Trenton Gardner,Big Lake Reagan County,82.28,195.04,113.4,195.04,503.49,Single-ply,SBD,M
Boys,82.1,4,Jake Strickland,Monahans,81.01,204.12,115.67,179.17,498.95,Single-ply,SBD,M
Boys,89.81,5,Joey Varela,Pecos,82.28,183.7,99.79,208.65,492.15,Single-ply,SBD,M
Boys,82.1,6,Alexis Armandarez,Alpine,79.02,163.29,113.4,197.31,474,Single-ply,SBD,M
Boys,82.1,7,Nick Miller #1,Alpine,78.38,170.1,90.72,170.1,430.91,Single-ply,SBD,M
Boys,82.1,8,Elias Terrazes,Alpine,77.02,165.56,92.99,167.83,426.38,Single-ply,SBD,M
Boys,82.1,9,Dustin Chopelas,Alpine,79.11,122.47,108.86,192.78,424.11,Single-ply,SBD,M
Boys,82.1,10,Casey Huertas,Monahans,80.83,161.03,88.45,161.03,410.5,Single-ply,SBD,M
Boys,82.1,11,Alex Vedoy,Crane,77.47,124.74,79.38,161.03,365.14,Single-ply,SBD,M
Boys,82.1,12,Lagen Smith,Crane,78.93,154.22,90.72,104.33,349.27,Single-ply,SBD,M
Boys,82.1,DQ,Tyler Curtis,Alpine,79.11,136.08,,,,Single-ply,SBD,M
Boys,99.79,1,Angel Aguilera,Big Lake Reagan County,89.9,249.48,131.54,226.8,607.81,Single-ply,SBD,M
Boys,89.81,2,Osbaldo Vega,Crane,88.72,188.24,147.42,208.65,544.31,Single-ply,SBD,M
Boys,89.81,3,Abraham Flores,Pecos,89.81,185.97,127.01,226.8,539.77,Single-ply,SBD,M
Boys,89.81,4,Nathan Tone,Monahans,88.36,199.58,117.93,185.97,503.49,Single-ply,SBD,M
Boys,89.81,5,Tate Richards,Rankin,82.92,181.44,142.88,176.9,501.22,Single-ply,SBD,M
Boys,89.81,6,Josh Caldwell,Monahans,86.45,181.44,81.65,176.9,439.98,Single-ply,SBD,M
Boys,89.81,7,Cody Phillips,Rankin,86.73,154.22,104.33,163.29,421.84,Single-ply,SBD,M
Boys,99.79,1,Azel Alvidrez,Andrews,96.16,226.8,147.42,247.21,621.42,Single-ply,SBD,M
Boys,99.79,2,Matthew Seibert,Pecos,90.81,197.31,122.47,249.48,569.26,Single-ply,SBD,M
Boys,99.79,3,Cody Stephens,Crane,99.79,204.12,142.88,217.72,564.72,Single-ply,SBD,M
Boys,99.79,4,Micah Melton,Andrews,99.43,195.04,111.13,199.58,505.76,Single-ply,SBD,M
Boys,99.79,5,Natanael Ramirez,Fort Stockton,96.71,204.12,90.72,192.78,487.61,Single-ply,SBD,M
Boys,99.79,6,Ty Crabtree,Monahans,99.52,179.17,120.2,181.44,480.81,Single-ply,SBD,M
Boys,99.79,7,Duston Vargas,Andrews,92.62,163.29,104.33,195.04,462.66,Single-ply,SBD,M
Boys,99.79,8,Justin Johnson,Pecos,97.98,163.29,106.59,158.76,428.64,Single-ply,SBD,M
Boys,99.79,9,Sammy Villarreal,Alpine,92.62,138.35,97.52,165.56,401.43,Single-ply,SBD,M
Boys,99.79,DQ,Joey Aceves,Andrews,97.34,190.51,99.79,58.97,,Single-ply,SBD,M
Boys,109.77,1,Oscar Gutierrez,Monahans,107.14,238.14,129.27,206.38,573.79,Single-ply,SBD,M
Boys,109.77,2,Ben Madrid,Pecos,101.6,197.31,147.42,210.92,555.65,Single-ply,SBD,M
Boys,109.77,3,Fabian Rondan,Andrews,108.77,226.8,122.47,185.97,535.24,Single-ply,SBD,M
Boys,109.77,4,Dakota Short,Big Lake Reagan County,106.87,213.19,115.67,158.76,487.61,Single-ply,SBD,M
Boys,109.77,5,Bryson Calixto,Monahans,109.23,201.85,104.33,176.9,483.08,Single-ply,SBD,M
Boys,109.77,6,James Phillips #6,Crane,101.24,156.49,104.33,170.1,430.91,Single-ply,SBD,M
Boys,109.77,7,Nathan Quiroz,Monahans,107.5,181.44,81.65,165.56,428.64,Single-ply,SBD,M
Boys,109.77,DQ,JD Esquivel,Big Lake Reagan County,109.59,204.12,102.06,,,Single-ply,SBD,M
Boys,124.74,1,Boston Alvarado,Fort Stockton,117.3,254.01,142.88,238.14,635.03,Single-ply,SBD,M
Boys,124.74,2,Cristian Aguirre,Fort Stockton,112.31,213.19,131.54,213.19,557.92,Single-ply,SBD,M
Boys,124.74,3,Alex Holguin,Monahans,116.21,199.58,104.33,174.63,478.54,Single-ply,SBD,M
Boys,124.74,4,Josue Chacon,Pecos,123.38,147.42,90.72,204.12,442.25,Single-ply,SBD,M
Boys,124.74+,1,Ernie Veloz,Big Lake Reagan County,131.18,256.28,127.01,206.38,589.67,Single-ply,SBD,M
Boys,124.74+,2,Aaron Salgado,Pecos,133.67,226.8,115.67,226.8,569.26,Single-ply,SBD,M
Boys,124.74+,3,Raymond Porras,Monahans,129.55,190.51,117.93,172.37,480.81,Single-ply,SBD,M
Boys,124.74+,4,Jorge Garibay,Andrews,125.1,140.61,108.86,170.1,419.57,Single-ply,SBD,M
Boys,,NS,Gage Glidewell,Alpine,,,,,,Single-ply,SBD,M
Boys,,NS,Antonio Rico,Big Lake Reagan County,,,,,,Single-ply,SBD,M
Boys,,NS,Zeke Sosa,Big Lake Reagan County,,,,,,Single-ply,SBD,M
Boys,,NS,Ramon Flores,Crane,,,,,,Single-ply,SBD,M
Boys,,NS,Kobe Roberson,Big Lake Reagan County,,,,,,Single-ply,SBD,M
