Place,Name,Sex,BirthDate,BirthYear,Age,Country,Equipment,Division,BodyweightKg,WeightClassKg,Squat1Kg,Squat2Kg,Squat3Kg,Best3SquatKg,Bench1Kg,Bench2Kg,Bench3Kg,Best3BenchKg,Deadlift1Kg,Deadlift2Kg,Deadlift3Kg,Best3DeadliftKg,TotalKg,Event
1,Abdalla Elmaghrebi,M,,1955,68,Libya,Raw,Masters 3,103.08,105,195,205,-215,205,100,-110,110,110,220,225,-227.5,225,540,SBD
1,Boudjemaa Bajdoudj,M,,1961,62,Algeria,Raw,Masters 3,91,93,70,80,100,100,50,60,70,70,100,110,120,120,290,SBD
1,Aissa Boutarfa,M,,1970,53,Algeria,Raw,Masters 2,82.05,83,-135,135,-150,135,75,85,-95,85,160,175,180,180,400,SBD
DQ,Ahmed Alhadad,M,,1971,52,Libya,Raw,Masters 2,113.38,120,220,230,250,250,120,-140,140,140,-250,-250,-250,,,SBD
2,Tariq Makhlouf,M,,1975,48,Libya,Raw,Masters 1,135.58,120+,240,260,270,270,120,130,140,140,240,250,-260,250,660,SBD
3,Hamid Halladja,M,,1975,48,Algeria,Raw,Masters 1,104.72,105,150,-160,-160,150,140,150,160,160,170,190,-210,190,500,SBD
1,Mohamed Dadou,M,,1977,46,Algeria,Raw,Masters 1,104.7,105,250,260,265,265,150,160,-162.5,160,270,280,-290,280,705,SBD
1,Mohamed Zine El Abdine Zouari,M,,1977,46,Tunisia,Raw,Masters 1,57.2,59,130,135,140,140,55,62.5,-67.5,62.5,-140,140,155,155,357.5,SBD
3,Mohamed Liratni,M,,1977,46,Algeria,Raw,Masters 1,152.11,120+,220,230,-260,230,140,-150,-160,140,220,-232.5,,220,590,SBD
1,Bilal Hadj Youb,M,,1978,45,Algeria,Raw,Masters 1,117.57,120,260,270,-280,270,150,160,170,170,280,300,-320,300,740,SBD
1,Adlane Belbedj,M,,1979,44,Algeria,Raw,Masters 1,91.15,93,140,150,160,160,130,140,150,150,200,220,230,230,540,SBD
2,Nassim Beggari,M,,1979,44,Algeria,Raw,Masters 1,81.9,83,100,110,120,120,70,80,90,90,140,160,-200,160,370,SBD
1,Omar Temghari,M,,1979,44,Algeria,Raw,Masters 1,130.96,120+,265,275,-290,275,175,185,-190,185,230,240,-250,240,700,SBD
2,Khalid Almaghribi,M,,1980,43,Libya,Raw,Masters 1,104.32,105,240,250,-260,250,180,190,-192.5,190,240,260,-275,260,700,SBD
1,Sofiane Brahimi,M,,1981,42,Algeria,Raw,Masters 1,82.08,83,135,145,155,155,130,140,150,150,160,175,200,200,505,SBD
1,Fatah Toubal,M,,1983,40,Algeria,Raw,Open,81.16,83,275,285,296,296,165,170,172.5,172.5,280,295,310,310,778.5,SBD
1,Mohamed Sahad,M,,1987,36,Algeria,Raw,Open,118.64,120,-360,360,-375,360,205,215,220,220,315,-330,330,330,910,SBD
2,Anong A Ngon,M,,1987,36,Cameroon,Raw,Open,122.78,120+,240,-280,280,280,170,190,-210,190,230,260,290,290,760,SBD
1,Amar Kanane,M,,1987,36,Algeria,Raw,Open,92.67,93,220,,,220,-150,150,-170,150,200,300,,300,670,SBD
1,Naji Ali,M,,1988,35,Libya,Raw,Open,64.92,66,170,180,192.5,192.5,120,130,135,135,220,230,240,240,567.5,SBD
2,Jean Joel Agoua,M,,1988,35,Ivory Coast,Raw,Open,71.64,74,190,-200,-200,190,115,125,130,130,200,-205,,200,520,SBD
DQ,Abdulla Mohamed Ahmeed Mohamed,M,,1988,35,Libya,Raw,Open,104.01,105,280,-300,-300,280,180,-195,-195,180,,,,,,SBD
1,Yacine Bendjeddou,M,,1989,34,Algeria,Raw,Open,104.8,105,280,-297.5,297.5,297.5,167.5,175,180,180,315,330,-337.5,330,807.5,SBD
3,Mohamed Abdullah,M,,1989,34,Egypt,Raw,Open,119.36,120,237.5,255,265,265,175,185,-192.5,185,260,275,282.5,282.5,732.5,SBD
2,Abdennasser Belmokadem,M,,1990,33,Algeria,Raw,Open,82.24,83,230,245,250,250,155,165,-170,165,220,240,255,255,670,SBD
2,Nouralddeen Daebis,M,,1993,30,Libya,Raw,Open,111.17,120,320,335,-340,335,180,-200,-200,180,340,-350,-370,340,855,SBD
3,Ahizi Ange-Martial Corcher,M,,1993,30,Ivory Coast,Raw,Open,100.8,105,180,200,202.5,202.5,130,140,142.5,142.5,250,270,275,275,620,SBD
1,Billal Aouimer,M,,1993,30,Algeria,Raw,Open,73.49,74,225,237.5,245,245,130,-142.5,142.5,142.5,280,292.5,-295,292.5,680,SBD
1,Mohamed Elhamali,M,,1995,28,Libya,Raw,Open,58.99,59,175,185,192.5,192.5,110,-122.5,-122.5,110,240,250,-257.5,250,552.5,SBD
1,Abdulrahman Mousa,M,,1996,27,Libya,Raw,Open,166.65,120+,380,-400,-405,380,200,210,225,225,330,-350,-350,330,935,SBD
DQ,Sid Ahmed Medjahed,M,,1997,26,Algeria,Raw,Open,58.7,59,-197.5,-197.5,-197.5,,100,102.5,105,105,190,195,-200,195,,SBD
1,Elyes Zerai,M,,2000,23,Tunisia,Raw,Juniors,92.91,93,237.5,250,255,255,135,140,142.5,142.5,292,-301,-301,292,689.5,SBD
2,Evilson da Luz Garcia Tavares,M,,2000,23,Cabo Verde,Raw,Open,99.85,105,250,260,-265,260,190,-207.5,-215,190,250,260,270,270,720,SBD
1,Fares Sboui,M,,2000,23,Tunisia,Raw,Juniors,104.68,105,300,311,-315,311,200,208,-210,208,320,336,340,340,859,SBD
2,Mohamed Ferdjoukh,M,,2001,22,Algeria,Raw,Juniors,82.33,83,185,200,210,210,130,140,145,145,290,305,-310,305,660,SBD
3,Rachid Legoui,M,,2001,22,Algeria,Raw,Juniors,72.24,74,190,205,-217.5,205,100,107.5,110,110,225,237.5,247.5,247.5,562.5,SBD
1,Taha Essabri,M,,2001,22,Libya,Raw,Juniors,81.01,83,215,225,240,240,130,140,142.5,142.5,280,300,-320,300,682.5,SBD
2,Abdullah Aboudabous,M,,2001,22,Libya,Raw,Juniors,92.64,93,220,-230,-230,220,150,-160,-160,150,270,292.5,302.5,302.5,672.5,SBD
1,Saeid Alhasi,M,,2001,22,Libya,Raw,Juniors,116.88,120,250,,,250,180,-215,-215,180,250,,,250,680,SBD
1,Abdulaziz Salem,M,,2002,21,Libya,Raw,Juniors,71.12,74,180,200,210,210,120,127.5,132.5,132.5,230,242.5,250,250,592.5,SBD
1,Mohammed Abousinan,M,,2003,20,Libya,Raw,Juniors,189.17,120+,350,-370,370,370,150,160,-165,160,280,300,-305,300,830,SBD
2,Iyed Messek,M,,2003,20,Tunisia,Raw,Juniors,65.71,66,-175,175,190,190,100,-107.5,107.5,107.5,230,-250,-250,230,527.5,SBD
3,Abderahim Azouni,M,,2004,19,Algeria,Raw,Juniors,92.2,93,225,-237.5,-237.5,225,147.5,152.5,-155,152.5,250,265,,265,642.5,SBD
1,Brahim Meziani,M,,2004,19,Algeria,Raw,Juniors,65.55,66,195,205,210,210,100,110,115.5,115.5,210,225,240,240,565.5,SBD
2,Nacim Djelouah,M,,2004,19,Algeria,Raw,Juniors,72.66,74,195,205,210,210,95,100,-102.5,100,250,-265,265,265,575,SBD
1,Anes Abdelmadjid Benyahia,M,,2005,18,Algeria,Raw,Sub-Juniors,104.99,105,-220,220,240,240,150,-160,-160,150,305,-322.5,-322.5,305,695,SBD
2,Mazigh Kacimi,M,,2005,18,Algeria,Raw,Sub-Juniors,58.17,59,-140,140,-145,140,92.5,-95,-95,92.5,175,180,-185,180,412.5,SBD
2,Kamar Eddine Chedjari,M,,2005,18,Algeria,Raw,Sub-Juniors,92.94,93,180,-197.5,197.5,197.5,130,-137.5,-137.5,130,230,240,255,255,582.5,SBD
3,Jean Arthur Essapa Mpacko,M,,2005,18,Cameroon,Raw,Sub-Juniors,72.16,74,120,125,130,130,80,90,-100,90,150,170,190,190,410,SBD
2,Salah Eddine Sebbane,M,,2005,18,Algeria,Raw,Sub-Juniors,65.27,66,160,172.5,180,180,82.5,92.5,95,95,192.5,205,212.5,212.5,487.5,SBD
1,Amar Khelifi,M,,2005,18,Algeria,Raw,Sub-Juniors,65.01,66,-175,175,-180,175,90,-97.5,97.5,97.5,185,200,215,215,487.5,SBD
2,Slimane Benmeddah,M,,2005,18,Algeria,Raw,Sub-Juniors,73.3,74,195,210,217.5,217.5,110,120,-132.5,120,210,-230,230,230,567.5,SBD
1,Mohamed Amine Lazreg,M,,2006,17,Tunisia,Raw,Sub-Juniors,89.21,93,-210,210,227.5,227.5,135,142.5,-150,142.5,240,250,255,255,625,SBD
2,Fodil Bouzidia,M,,2006,17,Algeria,Raw,Sub-Juniors,81.09,83,220,235,-250,235,90,97.5,100,100,235,245,265,265,600,SBD
1,Mahmoud Alkirrami,M,,2006,17,Libya,Raw,Sub-Juniors,82.3,83,200,215,222.5,222.5,120,135,145,145,250,260,280,280,647.5,SBD
1,Yassine Louizi,M,,2006,17,Tunisia,Raw,Sub-Juniors,73.5,74,195.5,204,-210.5,204,110,121,-124,121,251,-261,261,261,586,SBD
1,Ali Gheryani,M,,2007,16,Libya,Raw,Sub-Juniors,58.17,59,155,165,170,170,80,90,95,95,180,195,200.5,200.5,465.5,SBD
2,Fransoise Rose Bourennani,F,,,,Algeria,Raw,Juniors,62.39,63,75,85,-95,85,30,-40,-40,30,90,105,-115,105,220,SBD
1,Saida Gharbi Ep Fray,F,,1972,51,Tunisia,Raw,Masters 2,86.92,84+,120,-128,128,128,60,67.5,71,71,155,168,170,170,369,SBD
1,Safia Kouri,F,,1974,49,Algeria,Raw,Open,62.38,63,140,150,152.5,152.5,70,-77.5,77.5,77.5,170,180,185,185,415,SBD
1,Tarryn Valle,F,,1978,45,South Africa,Raw,Masters 1,51.21,52,82.5,87.5,-92.5,87.5,42.5,45,47.5,47.5,-120,-120,120,120,255,SBD
1,Rakia Saidani Ep Messelmani,F,,1982,41,Tunisia,Raw,Masters 1,71.62,76,100,107.5,110,110,52.5,57.5,-60,57.5,125,137.5,142.5,142.5,310,SBD
1,Thanina Maouchi,F,,1992,31,Algeria,Raw,Open,67,69,100,-115,-115,100,45,-55,-55,45,130,142.5,-155,142.5,287.5,SBD
1,Fatiha Saoudi,F,,1994,29,Algeria,Raw,Open,51.54,52,40,-60,70,70,37.5,42.5,-45,42.5,50,65,80,80,192.5,SBD
2,Amira Nouri,F,,1996,27,Tunisia,Raw,Open,63.37,69,100,-110,,100,50,-57.5,-57.5,50,122.5,135,-147.5,135,285,SBD
1,Amaria Houcine,F,,1998,25,Algeria,Raw,Open,72.77,76,125,140,-150,140,50,-60,-60,50,140,-150,-150,140,330,SBD
1,Lilia Ainennasse Hamza,F,,1998,25,Algeria,Raw,Open,138.4,84+,155,165,175,175,50,55,-60,55,165,175,-185,175,405,SBD
1,Fatima Bouterfa,F,,2000,23,Algeria,Raw,Juniors,68.77,69,115,-125,-127.5,115,60,-67.5,-67.5,60,135,142.5,150,150,325,SBD
2,Narjes Seroual,F,,2001,22,Tunisia,Raw,Juniors,63.72,69,110,-115,115,115,50,-55,-55,50,140,-147.5,-147.5,140,305,SBD
1,Yasmine Hkima,F,,2001,22,Tunisia,Raw,Juniors,51.5,52,95,100,107.5,107.5,-50,50,-55.5,50,117.5,125,131,131,288.5,SBD
1,Maha Sliti,F,,2002,21,Tunisia,Raw,Juniors,60.27,63,95,-100,100,100,62.5,70,-73,70,140,-145,145,145,315,SBD
1,Khlifi Sarra,F,,2004,19,Tunisia,Raw,Juniors,46.26,47,80,87.5,-92.5,87.5,45,50,55,55,115,-119,119,119,261.5,SBD
1,Hiba Gueidi,F,,2004,19,Tunisia,Raw,Juniors,54.58,57,85,-92.5,-92.5,85,40,45,-50,45,100,-112.5,,100,230,SBD
1,Amel Aomari,F,,2005,18,Algeria,Raw,Sub-Juniors,71.69,76,105,120,-135.5,120,50,-55,-55,50,120,130,140,140,310,SBD
1,Khadidja Belhadj,F,,2005,18,Algeria,Raw,Sub-Juniors,65.83,69,115,125,132.5,132.5,50,-52.5,-52.5,50,120,130,137.5,137.5,320,SBD
1,Jennifer Venus Eterna,F,,2005,18,Cameroon,Raw,Sub-Juniors,58.54,63,50,55,65,65,30,35,45,45,60,65,85,85,195,SBD
1,Ilef Mansouri,F,,2007,16,Tunisia,Raw,Sub-Juniors,76.54,84,90,100,107.5,107.5,52.5,60,62.5,62.5,145,152.5,157.5,157.5,327.5,SBD
